Building DAG of jobs...
MissingRuleException:
No rule to produce ../01_Fastq_Test/RawFastQ/NewFiles/M3S3/Job3_R1_dedupe.fastq.gz (if you use input functions make sure that they don't raise unexpected exceptions).
