Building DAG of jobs...
MissingInputException in line 1 of /data2/home/masalm/Antoine/PythonTest/Snakefile:
Missing input files for rule all:
../01_Fastq_Test/RawFastQ/NewFiles/M3S3/Job3_R1_dedupe.fastq.gz
../01_Fastq_Test/RawFastQ/NewFiles/M3S3/Job3_R2_dedupe.fastq.gz
